<svg width="35" height="35" viewBox="0 0 35 35" fill="none" xmlns="http://www.w3.org/2000/svg">
<path fill-rule="evenodd" clip-rule="evenodd" d="M2.91668 26.25C0.972232 26.25 0.972232 23.3333 2.91668 23.3333C4.52751 23.3333 5.83334 22.0275 5.83334 20.4167V13.125C5.83334 6.68169 11.0567 1.45834 17.5 1.45834C23.9433 1.45834 29.1667 6.68169 29.1667 13.125V20.4167C29.1667 22.0275 30.4725 23.3333 32.0833 23.3333C34.0278 23.3333 34.0278 26.25 32.0833 26.25H2.91668ZM26.25 20.4167V13.125C26.25 8.29252 22.3325 4.37501 17.5 4.37501C12.6675 4.37501 8.75001 8.29252 8.75001 13.125V20.4167C8.75001 21.4792 8.46594 22.4753 7.96961 23.3333H27.0304C26.5341 22.4753 26.25 21.4792 26.25 20.4167ZM17.5 33.5365C19.0598 33.5365 20.5017 32.706 21.2844 31.3568C21.8484 30.3845 21.1469 29.1667 20.0229 29.1667H14.9771C13.8531 29.1667 13.1517 30.3845 13.7156 31.3568C14.4983 32.706 15.9402 33.5365 17.5 33.5365Z" fill="black"/>
<mask id="mask0_0_3419" style="mask-type:alpha" maskUnits="userSpaceOnUse" x="1" y="1" width="33" height="33">
<path fill-rule="evenodd" clip-rule="evenodd" d="M2.91668 26.25C0.972232 26.25 0.972232 23.3333 2.91668 23.3333C4.52751 23.3333 5.83334 22.0275 5.83334 20.4167V13.125C5.83334 6.68169 11.0567 1.45834 17.5 1.45834C23.9433 1.45834 29.1667 6.68169 29.1667 13.125V20.4167C29.1667 22.0275 30.4725 23.3333 32.0833 23.3333C34.0278 23.3333 34.0278 26.25 32.0833 26.25H2.91668ZM26.25 20.4167V13.125C26.25 8.29252 22.3325 4.37501 17.5 4.37501C12.6675 4.37501 8.75001 8.29252 8.75001 13.125V20.4167C8.75001 21.4792 8.46594 22.4753 7.96961 23.3333H27.0304C26.5341 22.4753 26.25 21.4792 26.25 20.4167ZM17.5 33.5365C19.0598 33.5365 20.5017 32.706 21.2844 31.3568C21.8484 30.3845 21.1469 29.1667 20.0229 29.1667H14.9771C13.8531 29.1667 13.1517 30.3845 13.7156 31.3568C14.4983 32.706 15.9402 33.5365 17.5 33.5365Z" fill="white"/>
</mask>
<g mask="url(#mask0_0_3419)">
<rect width="35" height="35" fill="#F8F9FA"/>
</g>
</svg>
