<svg width="92" height="32" viewBox="0 0 92 32" fill="none" xmlns="http://www.w3.org/2000/svg">
<path fill-rule="evenodd" clip-rule="evenodd" d="M77.3481 22.9198C75.7905 22.9198 74.528 21.6085 74.528 19.9911C74.528 18.3733 75.7905 17.0622 77.3481 17.0622C78.9057 17.0622 80.1684 18.3733 80.1684 19.9911C80.1684 21.6085 78.9057 22.9198 77.3481 22.9198ZM87.5561 15.7419H89.7206V13.4941H87.5561V15.7419ZM85.9193 14.5671C85.9193 16.0828 87.1023 17.3116 88.562 17.3116C90.0215 17.3116 91.2047 16.0828 91.2047 14.5671C91.2047 13.7436 90.8537 13.0066 90.3006 12.5037V9.90105C90.3101 9.7479 90.308 9.59535 90.2951 9.44355C90.2916 9.3795 90.2853 9.31665 90.276 9.25425C90.2754 9.25095 90.275 9.2478 90.2745 9.24435C90.2663 9.192 90.2562 9.1407 90.2442 9.08985C90.1037 8.3964 89.7293 7.7547 89.1362 7.3098L80.5569 0.872847C80.4989 0.822897 80.189 0.566697 79.7202 0.360747C78.7875 -0.107253 77.6646 -0.139653 76.6671 0.380097L60.9806 8.55465C59.1779 9.4941 58.4499 11.7732 59.3544 13.6452L63.8465 11.3041V28.0354V28.3914V28.4275C63.8465 28.5124 63.8517 28.596 63.8606 28.6783C64.0013 30.4417 65.4213 31.8279 67.1558 31.8279H86.736H87.4547H87.9117C89.2791 31.8279 90.3879 30.6766 90.3879 29.2563V22.4542V21.4702V21.4086C90.3879 21.1671 90.3521 20.9346 90.2862 20.7159C89.9685 19.5316 88.9251 18.6618 87.6836 18.6618H82.5273V14.4435H71.9201V25.4592H82.5273V22.4542H86.736V28.0354H67.4984V9.40125L78.2325 3.80745L86.6489 10.1221V12.6772C86.1977 13.1695 85.9193 13.8339 85.9193 14.5671Z" fill="#E84E1B"/>
<path fill-rule="evenodd" clip-rule="evenodd" d="M16.2496 19.3872C16.2496 18.8204 16.1572 18.3072 15.9726 17.8475C15.7876 17.3882 15.5365 16.9929 15.2188 16.6622C14.901 16.3317 14.5296 16.0781 14.1043 15.902C13.6791 15.7262 13.2259 15.6378 12.745 15.6378C12.2638 15.6378 11.8108 15.7262 11.3857 15.902C10.9605 16.0781 10.591 16.3317 10.2777 16.6622C9.96389 16.9929 9.71714 17.3882 9.53684 17.8475C9.35639 18.3072 9.26624 18.8204 9.26624 19.3872C9.26624 19.92 9.35639 20.4138 9.53684 20.8691C9.71714 21.3245 9.96389 21.7194 10.2777 22.0544C10.591 22.3895 10.9605 22.6535 11.3857 22.8467C11.8108 23.0402 12.2638 23.1366 12.745 23.1366C13.2259 23.1366 13.6791 23.0466 14.1043 22.866C14.5296 22.6857 14.901 22.4325 15.2188 22.106C15.5365 21.7796 15.7876 21.3843 15.9726 20.9205C16.1572 20.4567 16.2496 19.9458 16.2496 19.3872ZM19.7929 19.3872C19.7929 20.418 19.608 21.3779 19.2388 22.2669C18.8694 23.156 18.3669 23.9249 17.7313 24.5733C17.0955 25.2221 16.3504 25.733 15.4959 26.1066C14.641 26.4803 13.7242 26.667 12.745 26.667C11.7742 26.667 10.8616 26.4803 10.0071 26.1066C9.15224 25.733 8.40479 25.2221 7.76519 24.5733C7.12499 23.9249 6.62039 23.156 6.25124 22.2669C5.88164 21.3779 5.69714 20.418 5.69714 19.3872C5.69714 18.3395 5.88164 17.369 6.25124 16.4754C6.62039 15.5822 7.12499 14.8113 7.76519 14.1626C8.40479 13.5141 9.15224 13.0052 10.0071 12.6357C10.8616 12.2666 11.7742 12.0818 12.745 12.0818C13.7242 12.0818 14.641 12.2556 15.4959 12.6035C16.3504 12.9515 17.0955 13.4456 17.7313 14.0852C18.3669 14.7254 18.8694 15.4941 19.2388 16.3916C19.608 17.2893 19.7929 18.2879 19.7929 19.3872Z" fill="#FEFEFE"/>
<path fill-rule="evenodd" clip-rule="evenodd" d="M31.5566 19.3872C31.5566 18.9063 31.4642 18.4403 31.2795 17.9894C31.0946 17.5383 30.8435 17.1389 30.5258 16.791C30.2079 16.4432 29.8365 16.1642 29.4113 15.9534C28.986 15.7431 28.5329 15.6378 28.052 15.6378C27.5706 15.6378 27.1178 15.7197 26.6927 15.8826C26.2674 16.046 25.898 16.2866 25.5846 16.6041C25.2708 16.9221 25.0241 17.3151 24.8436 17.7831C24.6633 18.2516 24.573 18.7862 24.573 19.3872C24.573 19.9629 24.6633 20.4806 24.8436 20.9399C25.0241 21.3995 25.2708 21.7925 25.5846 22.1189C25.898 22.4454 26.2674 22.6967 26.6927 22.8725C27.1178 23.0487 27.5706 23.1366 28.052 23.1366C28.5329 23.1366 28.986 23.0318 29.4113 22.821C29.8365 22.6106 30.2079 22.3314 30.5258 21.9836C30.8435 21.6356 31.0946 21.2361 31.2795 20.7852C31.4642 20.3342 31.5566 19.8686 31.5566 19.3872ZM35.0999 24.6701C35.0999 25.6407 34.9149 26.5512 34.5458 27.4016C34.1763 28.2519 33.6716 28.9947 33.0318 29.6306C32.3918 30.266 31.6445 30.7686 30.7899 31.1381C29.9349 31.5072 29.0225 31.692 28.052 31.692L26.2868 31.6662V28.1487L28.0262 28.1745C28.5756 28.1745 29.0441 28.1037 29.4306 27.962C29.8172 27.8202 30.1434 27.627 30.4098 27.3822C30.6759 27.1374 30.8885 26.8559 31.0476 26.5383C31.2065 26.2206 31.3331 25.8855 31.4277 25.5333C31.2902 25.7568 31.0928 25.9391 30.8349 26.0808C30.5774 26.2226 30.2916 26.3385 29.9783 26.4287C29.6645 26.519 29.3381 26.5811 28.9989 26.6154C28.6595 26.6496 28.3439 26.667 28.052 26.667C27.0812 26.667 26.1686 26.4996 25.3139 26.1647C24.459 25.8296 23.7117 25.3509 23.0721 24.7278C22.4319 24.1053 21.9272 23.3429 21.558 22.4409C21.1886 21.539 21.0041 20.5212 21.0041 19.3872C21.0041 18.348 21.1886 17.3817 21.558 16.4883C21.9272 15.5951 22.4319 14.8218 23.0721 14.169C23.7117 13.5164 24.459 13.0052 25.3139 12.6357C26.1686 12.2666 27.0812 12.0818 28.052 12.0818C28.4984 12.0818 28.941 12.1377 29.379 12.2492C29.8172 12.3609 30.2423 12.5156 30.6546 12.7131C31.067 12.9108 31.4598 13.1427 31.8336 13.4088C32.2073 13.6752 32.5571 13.9629 32.8836 14.2721C32.8791 13.7094 32.8745 13.1469 32.87 12.5844C33.6132 12.6017 34.3566 12.6186 35.0999 12.6357V24.6701Z" fill="#FEFEFE"/>
<path fill-rule="evenodd" clip-rule="evenodd" d="M39.978 26.4094H36.4605V12.61C37.1289 12.6186 37.7975 12.6271 38.466 12.6358C38.4675 13.1727 38.469 13.7095 38.4705 14.2464C39.0374 13.731 39.6816 13.3338 40.4031 13.0545C41.1248 12.7755 41.8721 12.6358 42.6452 12.6358H45.7503V16.1404H42.6452C42.2756 16.1404 41.9279 16.2093 41.6015 16.3465C41.2749 16.4841 40.9914 16.6732 40.7511 16.9134C40.5105 17.1541 40.3214 17.4375 40.1841 17.7637C40.0467 18.0904 39.978 18.4383 39.978 18.8074V26.4094Z" fill="#FEFEFE"/>
<path fill-rule="evenodd" clip-rule="evenodd" d="M56.5914 19.3872C56.5914 18.8204 56.499 18.3072 56.3144 17.8475C56.1294 17.3882 55.8782 16.9929 55.5606 16.6622C55.2428 16.3317 54.8712 16.0781 54.4461 15.902C54.0209 15.7262 53.5677 15.6378 53.0868 15.6378C52.6056 15.6378 52.1526 15.7262 51.7274 15.902C51.3023 16.0781 50.9327 16.3317 50.6195 16.6622C50.3057 16.9929 50.0589 17.3882 49.8785 17.8475C49.6982 18.3072 49.6079 18.8204 49.6079 19.3872C49.6079 19.92 49.6982 20.4138 49.8785 20.8691C50.0589 21.3245 50.3057 21.7194 50.6195 22.0544C50.9327 22.3895 51.3023 22.6535 51.7274 22.8467C52.1526 23.0402 52.6056 23.1366 53.0868 23.1366C53.5677 23.1366 54.0209 23.0466 54.4461 22.866C54.8712 22.6857 55.2428 22.4325 55.5606 22.106C55.8782 21.7796 56.1294 21.3843 56.3144 20.9205C56.499 20.4567 56.5914 19.9458 56.5914 19.3872ZM60.1346 19.3872C60.1346 20.418 59.9498 21.3779 59.5806 22.2669C59.2112 23.156 58.7087 23.9249 58.0731 24.5733C57.4373 25.2221 56.6922 25.733 55.8377 26.1066C54.9827 26.4803 54.066 26.667 53.0868 26.667C52.1159 26.667 51.2033 26.4803 50.3489 26.1066C49.494 25.733 48.7466 25.2221 48.107 24.5733C47.4668 23.9249 46.962 23.156 46.5929 22.2669C46.2234 21.3779 46.0389 20.418 46.0389 19.3872C46.0389 18.3395 46.2234 17.369 46.5929 16.4754C46.962 15.5822 47.4668 14.8113 48.107 14.1626C48.7466 13.5141 49.494 13.0052 50.3489 12.6357C51.2033 12.2666 52.1159 12.0818 53.0868 12.0818C54.066 12.0818 54.9827 12.2556 55.8377 12.6035C56.6922 12.9515 57.4373 13.4456 58.0731 14.0852C58.7087 14.7254 59.2112 15.4941 59.5806 16.3916C59.9498 17.2893 60.1346 18.2879 60.1346 19.3872Z" fill="#FEFEFE"/>
<mask id="mask0_0_3426" style="mask-type:alpha" maskUnits="userSpaceOnUse" x="0" y="0" width="92" height="32">
<path fill-rule="evenodd" clip-rule="evenodd" d="M0 31.8279H91.2048V0H0V31.8279Z" fill="white"/>
</mask>
<g mask="url(#mask0_0_3426)">
<path fill-rule="evenodd" clip-rule="evenodd" d="M19.1529 31.7143H25.1925V28.2115H19.1529V31.7143Z" fill="#E84E1B"/>
<path fill-rule="evenodd" clip-rule="evenodd" d="M12.9361 28.2116V28.1858H3.69795V14.1733H3.6729V6.17841H0V14.1733V31.6921H3.6894H12.9361H18.0747V28.2116H12.9361Z" fill="#FEFEFE"/>
</g>
</svg>
