<svg width="30" height="31" viewBox="0 0 30 31" fill="none" xmlns="http://www.w3.org/2000/svg">
<path fill-rule="evenodd" clip-rule="evenodd" d="M10 10.3333H12.5C13.1904 10.3333 13.75 10.9116 13.75 11.625C13.75 12.3384 13.1904 12.9167 12.5 12.9167H10C9.30964 12.9167 8.75 12.3384 8.75 11.625C8.75 10.9116 9.30964 10.3333 10 10.3333ZM20 20.6667H10C9.30964 20.6667 8.75 21.245 8.75 21.9583C8.75 22.6717 9.30964 23.25 10 23.25H20C20.6904 23.25 21.25 22.6717 21.25 21.9583C21.25 21.245 20.6904 20.6667 20 20.6667Z" fill="black"/>
<mask id="mask0_0_3504" style="mask-type:alpha" maskUnits="userSpaceOnUse" x="8" y="10" width="14" height="14">
<path fill-rule="evenodd" clip-rule="evenodd" d="M10 10.3333H12.5C13.1904 10.3333 13.75 10.9116 13.75 11.625C13.75 12.3384 13.1904 12.9167 12.5 12.9167H10C9.30964 12.9167 8.75 12.3384 8.75 11.625C8.75 10.9116 9.30964 10.3333 10 10.3333ZM20 20.6667H10C9.30964 20.6667 8.75 21.245 8.75 21.9583C8.75 22.6717 9.30964 23.25 10 23.25H20C20.6904 23.25 21.25 22.6717 21.25 21.9583C21.25 21.245 20.6904 20.6667 20 20.6667Z" fill="white"/>
</mask>
<g mask="url(#mask0_0_3504)">
<rect width="30" height="31" fill="#E94E1B"/>
</g>
</svg>
