<svg width="30" height="30" viewBox="0 0 30 30" fill="none" xmlns="http://www.w3.org/2000/svg">
<path fill-rule="evenodd" clip-rule="evenodd" d="M12.5 26.25H6.25C5.55964 26.25 5 25.6904 5 25V5C5 4.30964 5.55964 3.75 6.25 3.75H12.5C13.1904 3.75 13.75 3.19036 13.75 2.5C13.75 1.80964 13.1904 1.25 12.5 1.25H6.25C4.17893 1.25 2.5 2.92893 2.5 5V25C2.5 27.0711 4.17893 28.75 6.25 28.75H12.5C13.1904 28.75 13.75 28.1904 13.75 27.5C13.75 26.8096 13.1904 26.25 12.5 26.25ZM20.3661 19.1161C19.878 19.6043 19.878 20.3957 20.3661 20.8839C20.8543 21.372 21.6457 21.372 22.1339 20.8839L27.133 15.8848L27.1339 15.8839C27.1366 15.8812 27.1393 15.8784 27.142 15.8757C27.139 15.8787 27.136 15.8817 27.133 15.8848M27.142 14.1243C27.2578 14.2422 27.3455 14.3774 27.4052 14.5215C27.3433 14.3724 27.2534 14.2378 27.142 14.1243ZM27.133 14.1152L22.1339 9.11612C21.6457 8.62796 20.8543 8.62796 20.3661 9.11612C19.878 9.60427 19.878 10.3957 20.3661 10.8839L23.2322 13.75H11.25C10.5596 13.75 10 14.3096 10 15C10 15.6904 10.5596 16.25 11.25 16.25H23.2322L20.3661 19.1161" fill="black"/>
<mask id="mask0_0_3503" style="mask-type:alpha" maskUnits="userSpaceOnUse" x="2" y="1" width="26" height="28">
<path fill-rule="evenodd" clip-rule="evenodd" d="M12.5 26.25H6.25C5.55964 26.25 5 25.6904 5 25V5C5 4.30964 5.55964 3.75 6.25 3.75H12.5C13.1904 3.75 13.75 3.19036 13.75 2.5C13.75 1.80964 13.1904 1.25 12.5 1.25H6.25C4.17893 1.25 2.5 2.92893 2.5 5V25C2.5 27.0711 4.17893 28.75 6.25 28.75H12.5C13.1904 28.75 13.75 28.1904 13.75 27.5C13.75 26.8096 13.1904 26.25 12.5 26.25ZM20.3661 19.1161C19.878 19.6043 19.878 20.3957 20.3661 20.8839C20.8543 21.372 21.6457 21.372 22.1339 20.8839L27.133 15.8848L27.1339 15.8839C27.1366 15.8812 27.1393 15.8784 27.142 15.8757C27.139 15.8787 27.136 15.8817 27.133 15.8848M27.142 14.1243C27.2578 14.2422 27.3455 14.3774 27.4052 14.5215C27.3433 14.3724 27.2534 14.2378 27.142 14.1243ZM27.133 14.1152L22.1339 9.11612C21.6457 8.62796 20.8543 8.62796 20.3661 9.11612C19.878 9.60427 19.878 10.3957 20.3661 10.8839L23.2322 13.75H11.25C10.5596 13.75 10 14.3096 10 15C10 15.6904 10.5596 16.25 11.25 16.25H23.2322L20.3661 19.1161" fill="white"/>
</mask>
<g mask="url(#mask0_0_3503)">
<rect width="30" height="30" fill="#E94E1B"/>
</g>
</svg>
